SNN1/hardware/snn_ternary_waveform.vcd
$date
	Mon Feb  2 06:58:34 2026
$end
$version
	Icarus Verilog
$end
$timescale
	1ps
$end
$scope module tb_snn_ternary $end
$var wire 1 ! spike_enc_1 $end
$var wire 1 " spike_enc_0 $end
$var wire 1 # led_out $end
$var parameter 32 $ CLK_PERIOD $end
$var parameter 32 % LEAK $end
$var parameter 32 & POTENTIAL_WIDTH $end
$var parameter 32 ' SIM_TIME $end
$var parameter 32 ( SPIKE_PERIOD $end
$var parameter 32 ) THRESHOLD $end
$var reg 1 * clk $end
$var reg 1 + rst_n $end
$var reg 1 , switch_0 $end
$var reg 1 - switch_1 $end
$var integer 32 . output_spike_count [31:0] $end
$var integer 32 / test_number [31:0] $end
$scope module dut $end
$var wire 1 * clk $end
$var wire 1 + rst_n $end
$var wire 1 , switch_0 $end
$var wire 1 - switch_1 $end
$var wire 8 0 weighted_i1_h1 [7:0] $end
$var wire 8 1 weighted_i1_h0 [7:0] $end
$var wire 8 2 weighted_i0_h1 [7:0] $end
$var wire 8 3 weighted_i0_h0 [7:0] $end
$var wire 8 4 weighted_h1_o [7:0] $end
$var wire 8 5 weighted_h1_h0_inhib [7:0] $end
$var wire 8 6 weighted_h0_o [7:0] $end
$var wire 8 7 weighted_h0_h1_inhib [7:0] $end
$var wire 8 8 weighted_both_inhib [7:0] $end
$var wire 1 # spike_out $end
$var wire 1 ! spike_in_1 $end
$var wire 1 " spike_in_0 $end
$var wire 1 9 spike_hidden_1 $end
$var wire 1 : spike_hidden_0 $end
$var wire 9 ; current_output [8:0] $end
$var wire 9 < current_hidden_1 [8:0] $end
$var wire 9 = current_hidden_0 [8:0] $end
$var parameter 32 > LEAK $end
$var parameter 32 ? POTENTIAL_WIDTH $end
$var parameter 32 @ THRESHOLD $end
$var parameter 32 A WEIGHT_BOTH_INHIB $end
$var parameter 32 B WEIGHT_H0_H1 $end
$var parameter 32 C WEIGHT_H0_O $end
$var parameter 32 D WEIGHT_H1_H0 $end
$var parameter 32 E WEIGHT_H1_O $end
$var parameter 32 F WEIGHT_I0_H0 $end
$var parameter 32 G WEIGHT_I0_H1 $end
$var parameter 32 H WEIGHT_I1_H0 $end
$var parameter 32 I WEIGHT_I1_H1 $end
$scope module hidden_neuron_0 $end
$var wire 1 * clk $end
$var wire 9 J input_current [8:0] $end
$var wire 8 K neuron_id [7:0] $end
$var wire 1 + rst_n $end
$var parameter 32 L LEAK $end
$var parameter 32 M POTENTIAL_WIDTH $end
$var parameter 32 N THRESHOLD $end
$var parameter 32 O WEIGHT $end
$var reg 8 P membrane_potential [7:0] $end
$var reg 9 Q next_potential [8:0] $end
$var reg 1 : spike_out $end
$upscope $end
$scope module hidden_neuron_1 $end
$var wire 1 * clk $end
$var wire 9 R input_current [8:0] $end
$var wire 8 S neuron_id [7:0] $end
$var wire 1 + rst_n $end
$var parameter 32 T LEAK $end
$var parameter 32 U POTENTIAL_WIDTH $end
$var parameter 32 V THRESHOLD $end
$var parameter 32 W WEIGHT $end
$var reg 8 X membrane_potential [7:0] $end
$var reg 9 Y next_potential [8:0] $end
$var reg 1 9 spike_out $end
$upscope $end
$scope module output_neuron $end
$var wire 1 * clk $end
$var wire 9 Z input_current [8:0] $end
$var wire 8 [ neuron_id [7:0] $end
$var wire 1 + rst_n $end
$var parameter 32 \ LEAK $end
$var parameter 32 ] POTENTIAL_WIDTH $end
$var parameter 32 ^ THRESHOLD $end
$var parameter 32 _ WEIGHT $end
$var reg 8 ` membrane_potential [7:0] $end
$var reg 9 a next_potential [8:0] $end
$var reg 1 # spike_out $end
$upscope $end
$upscope $end
$scope module encoder_0 $end
$var wire 1 * clk $end
$var wire 1 , enable $end
$var wire 1 + rst_n $end
$var parameter 32 b SPIKE_PERIOD $end
$var reg 4 c counter [3:0] $end
$var reg 1 " spike_out $end
$upscope $end
$scope module encoder_1 $end
$var wire 1 * clk $end
$var wire 1 - enable $end
$var wire 1 + rst_n $end
$var parameter 32 d SPIKE_PERIOD $end
$var reg 4 e counter [3:0] $end
$var reg 1 ! spike_out $end
$upscope $end
$upscope $end
$enddefinitions $end
$comment Show the parameter values. $end
$dumpall
b101 d
b101 b
b0 _
b10 ^
b1000 ]
b0 \
b0 W
b10 V
b1000 U
b0 T
b0 O
b10 N
b1000 M
b0 L
b1 I
b1 H
b1 G
b1 F
b1 E
b11111111111111111111111111111111 D
b1 C
b11111111111111111111111111111111 B
b11111111111111111111111111111111 A
b10 @
b1000 ?
b0 >
b10 )
b101 (
b1111101000 '
b1000 &
b0 %
b1010 $
$end
#0
$dumpvars
b0 e
b0 c
bx a
b0 `
b10 [
b0 Z
bx Y
b0 X
b1 S
b0 R
bx Q
b0 P
b0 K
b0 J
b0 =
b0 <
b0 ;
0:
09
b0 8
b0 7
b0 6
b0 5
b0 4
b0 3
b0 2
b0 1
b0 0
b0 /
b0 .
0-
0,
0+
0*
0#
0"
0!
$end
#5000
1*
#10000
0*
#15000
1*
#20000
0*
#25000
1*
#30000
0*
1+
#35000
b0 Q
b0 Y
b0 a
1*
#40000
0*
#45000
1*
#50000
0*
#55000
1*
#60000
0*
b1 /
#65000
1*
#70000
0*
#75000
1*
#80000
0*
#85000
1*
#90000
0*
#95000
1*
#100000
0*
#105000
1*
#110000
0*
#115000
1*
#120000
0*
#125000
1*
#130000
0*
#135000
1*
#140000
0*
#145000
1*
#150000
0*
#155000
1*
#160000
0*
#165000
1*
#170000
0*
#175000
1*
#180000
0*
#185000
1*
#190000
0*
#195000
1*
#200000
0*
#205000
1*
#210000
0*
#215000
1*
#220000
0*
#225000
1*
#230000
0*
#235000
1*
#240000
0*
#245000
1*
#250000
0*
#255000
1*
#260000
0*
#265000
1*
#270000
0*
#275000
1*
#280000
0*
#285000
1*
#290000
0*
#295000
1*
#300000
0*
#305000
1*
#310000
0*
1-
b10 /
#315000
b1 e
1*
#320000
0*
#325000
b10 e
1*
#330000
0*
#335000
b11 e
1*
#340000
0*
#345000
b100 e
1*
#350000
0*
#355000
b1 <
b1 R
b1 0
b1 =
b1 J
b1 1
1!
b0 e
1*
#360000
0*
#365000
b0 <
b0 R
b0 0
b0 =
b0 J
b0 1
b1 X
b1 P
0!
b1 e
b1 Y
b1 Q
1*
#370000
0*
#375000
b10 e
1*
#380000
0*
#385000
b11 e
1*
#390000
0*
#395000
b100 e
1*
#400000
0*
#405000
b1 <
b1 R
b1 0
b1 =
b1 J
b1 1
1!
b0 e
1*
#410000
0*
#415000
b0 <
b0 R
b0 0
b0 =
b0 J
b0 1
0!
b1 e
b10 P
b10 X
b10 Q
b10 Y
1*
#420000
0*
#425000
b1 4
b111111111 =
b111111111 J
b11111111 5
b10 ;
b10 Z
b1 6
b111111111 <
b111111111 R
b11111111 7
b0 X
19
b0 P
1:
b10 e
1*
#430000
0*
#435000
b0 6
b0 <
b0 R
b0 7
b0 ;
b0 Z
b0 4
b0 =
b0 J
b0 5
b11 e
0:
09
b10 `
b111111111 Q
b111111111 Y
b10 a
1*
#440000
0*
#445000
b0 `
1#
b100 e
b0 Y
b0 Q
1*
#450000
0*
#455000
b1 <
b1 R
b1 0
b1 =
b1 J
b1 1
1!
b0 e
0#
b0 a
b1 .
1*
#460000
0*
#465000
b0 <
b0 R
b0 0
b0 =
b0 J
b0 1
b1 X
b1 P
0!
b1 e
b1 Y
b1 Q
1*
#470000
0*
#475000
b10 e
1*
#480000
0*
#485000
b11 e
1*
#490000
0*
#495000
b100 e
1*
#500000
0*
#505000
b1 <
b1 R
b1 0
b1 =
b1 J
b1 1
1!
b0 e
1*
#510000
0*
#515000
b0 <
b0 R
b0 0
b0 =
b0 J
b0 1
0!
b1 e
b10 P
b10 X
b10 Q
b10 Y
1*
#520000
0*
#525000
b1 4
b111111111 =
b111111111 J
b11111111 5
b10 ;
b10 Z
b1 6
b111111111 <
b111111111 R
b11111111 7
b0 X
19
b0 P
1:
b10 e
1*
#530000
0*
#535000
b0 6
b0 <
b0 R
b0 7
b0 ;
b0 Z
b0 4
b0 =
b0 J
b0 5
b11 e
0:
09
b10 `
b111111111 Q
b111111111 Y
b10 a
1*
#540000
0*
#545000
b0 `
1#
b100 e
b0 Y
b0 Q
1*
#550000
0*
#555000
b1 <
b1 R
b1 0
b1 =
b1 J
b1 1
1!
b0 e
0#
b0 a
b10 .
1*
#560000
0*
0-
1,
b0 .
b11 /
#565000
b0 <
b0 R
b0 0
b0 =
b0 J
b0 1
b1 X
b1 P
0!
b1 c
b1 Y
b1 Q
1*
#570000
0*
#575000
b10 c
1*
#580000
0*
#585000
b11 c
1*
#590000
0*
#595000
b100 c
1*
#600000
0*
#605000
b1 <
b1 R
b1 2
b1 =
b1 J
b1 3
1"
b0 c
1*
#610000
0*
#615000
b0 <
b0 R
b0 2
b0 =
b0 J
b0 3
0"
b1 c
b10 P
b10 X
b10 Q
b10 Y
1*
#620000
0*
#625000
b1 4
b111111111 =
b111111111 J
b11111111 5
b10 ;
b10 Z
b1 6
b111111111 <
b111111111 R
b11111111 7
b0 X
19
b0 P
1:
b10 c
1*
#630000
0*
#635000
b0 6
b0 <
b0 R
b0 7
b0 ;
b0 Z
b0 4
b0 =
b0 J
b0 5
b11 c
0:
09
b10 `
b111111111 Q
b111111111 Y
b10 a
1*
#640000
0*
#645000
b0 `
1#
b100 c
b0 Y
b0 Q
1*
#650000
0*
#655000
b1 <
b1 R
b1 2
b1 =
b1 J
b1 3
1"
b0 c
0#
b0 a
b1 .
1*
#660000
0*
#665000
b0 <
b0 R
b0 2
b0 =
b0 J
b0 3
b1 X
b1 P
0"
b1 c
b1 Y
b1 Q
1*
#670000
0*
#675000
b10 c
1*
#680000
0*
#685000
b11 c
1*
#690000
0*
#695000
b100 c
1*
#700000
0*
#705000
b1 <
b1 R
b1 2
b1 =
b1 J
b1 3
1"
b0 c
1*
#710000
0*
#715000
b0 <
b0 R
b0 2
b0 =
b0 J
b0 3
0"
b1 c
b10 P
b10 X
b10 Q
b10 Y
1*
#720000
0*
#725000
b1 4
b111111111 =
b111111111 J
b11111111 5
b10 ;
b10 Z
b1 6
b111111111 <
b111111111 R
b11111111 7
b0 X
19
b0 P
1:
b10 c
1*
#730000
0*
#735000
b0 6
b0 <
b0 R
b0 7
b0 ;
b0 Z
b0 4
b0 =
b0 J
b0 5
b11 c
0:
09
b10 `
b111111111 Q
b111111111 Y
b10 a
1*
#740000
0*
#745000
b0 `
1#
b100 c
b0 Y
b0 Q
1*
#750000
0*
#755000
b1 <
b1 R
b1 2
b1 =
b1 J
b1 3
1"
b0 c
0#
b0 a
b10 .
1*
#760000
0*
#765000
b0 <
b0 R
b0 2
b0 =
b0 J
b0 3
b1 X
b1 P
0"
b1 c
b1 Y
b1 Q
1*
#770000
0*
#775000
b10 c
1*
#780000
0*
#785000
b11 c
1*
#790000
0*
#795000
b100 c
1*
#800000
0*
#805000
b1 <
b1 R
b1 2
b1 =
b1 J
b1 3
1"
b0 c
1*
#810000
b111111111 ;
b111111111 Z
b11111111 8
0*
1-
b0 .
b100 /
#815000
b0 <
b0 R
b0 2
b0 =
b0 J
b0 3
0"
b1 c
b1 e
b10 P
b10 X
b10 Q
b10 Y
b111111111 a
1*
#820000
0*
#825000
b1 4
b111111111 =
b111111111 J
b11111111 5
b1 ;
b1 Z
b1 6
b111111111 <
b111111111 R
b11111111 7
b0 X
19
b0 P
1:
b10 e
b10 c
b111111111 a
1*
#830000
0*
#835000
b0 6
b0 <
b0 R
b0 7
b111111111 ;
b111111111 Z
b0 4
b0 =
b0 J
b0 5
b11 c
b11 e
0:
09
b1 `
b111111111 Q
b111111111 Y
b1 a
1*
#840000
0*
#845000
b0 `
b100 e
b100 c
b0 a
b0 Y
b0 Q
1*
#850000
0*
#855000
b1 2
b1 3
b10 <
b10 R
b1 0
b10 =
b10 J
b1 1
1"
b0 c
1!
b0 e
b111111111 a
1*
#860000
0*
#865000
b0 0
b0 1
b0 <
b0 R
b0 2
b0 =
b0 J
b0 3
b10 X
b10 P
0!
b1 e
0"
b1 c
b111111111 a
b10 Y
b10 Q
1*
#870000
0*
#875000
b1 6
b111111111 <
b111111111 R
b11111111 7
b1 ;
b1 Z
b1 4
b111111111 =
b111111111 J
b11111111 5
b10 c
b10 e
b0 P
1:
b0 X
19
b111111111 a
1*
#880000
0*
#885000
b0 4
b0 =
b0 J
b0 5
b111111111 ;
b111111111 Z
b0 6
b0 <
b0 R
b0 7
b1 `
09
0:
b11 e
b11 c
b1 a
b111111111 Y
b111111111 Q
1*
#890000
0*
#895000
b100 c
b100 e
b0 `
b0 Q
b0 Y
b0 a
1*
#900000
0*
#905000
b1 0
b1 1
b10 <
b10 R
b1 2
b10 =
b10 J
b1 3
1!
b0 e
1"
b0 c
b111111111 a
1*
#910000
0*
#915000
b0 2
b0 3
b0 <
b0 R
b0 0
b0 =
b0 J
b0 1
0"
b1 c
0!
b1 e
b10 P
b10 X
b10 Q
b10 Y
b111111111 a
1*
#920000
0*
#925000
b1 4
b111111111 =
b111111111 J
b11111111 5
b1 ;
b1 Z
b1 6
b111111111 <
b111111111 R
b11111111 7
b0 X
19
b0 P
1:
b10 e
b10 c
b111111111 a
1*
#930000
0*
#935000
b0 6
b0 <
b0 R
b0 7
b111111111 ;
b111111111 Z
b0 4
b0 =
b0 J
b0 5
b11 c
b11 e
0:
09
b1 `
b111111111 Q
b111111111 Y
b1 a
1*
#940000
0*
#945000
b0 `
b100 e
b100 c
b0 a
b0 Y
b0 Q
1*
#950000
0*
#955000
b1 2
b1 3
b10 <
b10 R
b1 0
b10 =
b10 J
b1 1
1"
b0 c
1!
b0 e
b111111111 a
1*
#960000
0*
#965000
b0 0
b0 1
b0 <
b0 R
b0 2
b0 =
b0 J
b0 3
b10 X
b10 P
0!
b1 e
0"
b1 c
b111111111 a
b10 Y
b10 Q
1*
#970000
0*
#975000
b1 6
b111111111 <
b111111111 R
b11111111 7
b1 ;
b1 Z
b1 4
b111111111 =
b111111111 J
b11111111 5
b10 c
b10 e
b0 P
1:
b0 X
19
b111111111 a
1*
#980000
0*
#985000
b0 4
b0 =
b0 J
b0 5
b111111111 ;
b111111111 Z
b0 6
b0 <
b0 R
b0 7
b1 `
09
0:
b11 e
b11 c
b1 a
b111111111 Y
b111111111 Q
1*
#990000
0*
#995000
b100 c
b100 e
b0 `
b0 Q
b0 Y
b0 a
1*
#1000000
0*
#1005000
b1 0
b1 1
b10 <
b10 R
b1 2
b10 =
b10 J
b1 3
1!
b0 e
1"
b0 c
b111111111 a
1*
#1010000
0*
#1015000
b0 2
b0 3
b0 <
b0 R
b0 0
b0 =
b0 J
b0 1
0"
b1 c
0!
b1 e
b10 P
b10 X
b10 Q
b10 Y
b111111111 a
1*
#1020000
0*
#1025000
b1 4
b111111111 =
b111111111 J
b11111111 5
b1 ;
b1 Z
b1 6
b111111111 <
b111111111 R
b11111111 7
b0 X
19
b0 P
1:
b10 e
b10 c
b111111111 a
1*
#1030000
0*
#1035000
b0 6
b0 <
b0 R
b0 7
b111111111 ;
b111111111 Z
b0 4
b0 =
b0 J
b0 5
b11 c
b11 e
0:
09
b1 `
b111111111 Q
b111111111 Y
b1 a
1*
#1040000
0*
#1045000
b0 `
b100 e
b100 c
b0 a
b0 Y
b0 Q
1*
#1050000
0*
#1055000
b1 2
b1 3
b10 <
b10 R
b1 0
b10 =
b10 J
b1 1
1"
b0 c
1!
b0 e
b111111111 a
1*
